%!PS-Adobe-3.0
%%DocumentNeededResources: font Helvetica
%%+ font Helvetica-Bold
%%+ font Helvetica-Oblique
%%+ font Helvetica-BoldOblique
%%+ font Symbol
%%DocumentMedia: special 504 360 0 () ()
%%Title: R Graphics Output
%%Creator: R Software
%%Pages: (atend)
%%BoundingBox: 0 0 504 360
%%EndComments
%%BeginProlog
/bp  { gs gs } def
% begin .ps.prolog
/gs  { gsave } bind def
/gr  { grestore } bind def
/ep  { showpage gr gr } bind def
/m   { moveto } bind def
/l  { rlineto } bind def
/np  { newpath } bind def
/cp  { closepath } bind def
/f   { fill } bind def
/o   { stroke } bind def
/c   { newpath 0 360 arc } bind def
/r   { 4 2 roll moveto 1 copy 3 -1 roll exch 0 exch rlineto 0 rlineto -1 mul 0 exch rlineto closepath } bind def
/p1  { stroke } bind def
/p2  { gsave bg fill grestore newpath } bind def
/p3  { gsave bg fill grestore stroke } bind def
/p6  { gsave bg eofill grestore newpath } bind def
/p7  { gsave bg eofill grestore stroke } bind def
/t   { 5 -2 roll moveto gsave rotate
       1 index stringwidth pop
       mul neg 0 rmoveto show grestore } bind def
/ta  { 4 -2 roll moveto gsave rotate show } bind def
/tb  { 2 -1 roll 0 rmoveto show } bind def
/cl  { grestore gsave newpath 3 index 3 index moveto 1 index
       4 -1 roll lineto  exch 1 index lineto lineto
       closepath clip newpath } bind def
/rgb { setrgbcolor } bind def
/s   { scalefont setfont } bind def
% end   .ps.prolog
%%IncludeResource: font Helvetica
/Helvetica findfont
dup length dict begin
  {1 index /FID ne {def} {pop pop} ifelse} forall
  /Encoding ISOLatin1Encoding def
  currentdict
  end
/Font1 exch definefont pop
%%IncludeResource: font Helvetica-Bold
/Helvetica-Bold findfont
dup length dict begin
  {1 index /FID ne {def} {pop pop} ifelse} forall
  /Encoding ISOLatin1Encoding def
  currentdict
  end
/Font2 exch definefont pop
%%IncludeResource: font Helvetica-Oblique
/Helvetica-Oblique findfont
dup length dict begin
  {1 index /FID ne {def} {pop pop} ifelse} forall
  /Encoding ISOLatin1Encoding def
  currentdict
  end
/Font3 exch definefont pop
%%IncludeResource: font Helvetica-BoldOblique
/Helvetica-BoldOblique findfont
dup length dict begin
  {1 index /FID ne {def} {pop pop} ifelse} forall
  /Encoding ISOLatin1Encoding def
  currentdict
  end
/Font4 exch definefont pop
%%IncludeResource: font Symbol
/Symbol findfont
dup length dict begin
  {1 index /FID ne {def} {pop pop} ifelse} forall
  currentdict
  end
/Font5 exch definefont pop
%%EndProlog
%%Page: 1 1
bp
19.01 23.76 135.50 340.99 cl
19.01 23.76 135.50 340.99 cl
0.3020 setgray
1.12 setlinewidth
[] 0 setdash
1 setlinecap
1 setlinejoin
10.00 setmiterlimit
np
23.32 158.53 m
28.83 0 l
o
np
52.15 74.85 m
17.07 0 l
o
np
69.22 47.75 m
12.54 0 l
o
np
81.76 35.51 m
26.27 0 l
o
np
81.76 59.99 m
9.33 0 l
o
np
91.09 49.50 m
16.94 0 l
o
np
91.09 70.48 m
12.70 0 l
o
np
103.79 63.48 m
4.24 0 l
o
np
103.79 77.47 m
4.24 0 l
o
np
69.22 101.95 m
7.13 0 l
o
np
76.35 91.46 m
31.68 0 l
o
np
76.35 112.44 m
20.80 0 l
o
np
97.15 105.45 m
10.88 0 l
o
np
97.15 119.43 m
10.88 0 l
o
np
52.15 242.20 m
0.76 0 l
o
np
52.91 186.64 m
2.01 0 l
o
np
54.92 163.14 m
3.47 0 l
o
np
58.39 150.90 m
0.73 0 l
o
np
59.12 140.41 m
27.29 0 l
o
np
86.41 133.42 m
21.62 0 l
o
np
86.41 147.41 m
21.62 0 l
o
np
59.12 161.40 m
48.91 0 l
o
np
58.39 175.38 m
49.64 0 l
o
np
54.92 210.13 m
20.69 0 l
o
np
75.61 189.37 m
32.42 0 l
o
np
75.61 230.89 m
2.12 0 l
o
np
77.73 203.36 m
30.30 0 l
o
np
77.73 258.43 m
3.30 0 l
o
np
81.03 243.57 m
2.20 0 l
o
np
83.23 227.83 m
11.35 0 l
o
np
94.58 217.34 m
13.45 0 l
o
np
94.58 238.33 m
13.22 0 l
o
np
107.80 231.33 m
0.23 0 l
o
np
107.80 245.32 m
0.23 0 l
o
np
83.23 259.31 m
24.80 0 l
o
np
81.03 273.29 m
27.00 0 l
o
np
52.91 297.77 m
3.06 0 l
o
np
55.97 287.28 m
52.06 0 l
o
np
55.97 308.26 m
46.34 0 l
o
np
102.31 301.27 m
5.72 0 l
o
np
102.31 315.26 m
5.72 0 l
o
np
23.32 329.24 m
84.71 0 l
o
np
23.32 158.53 m
0 170.71 l
o
np
52.15 74.85 m
0 167.35 l
o
np
69.22 47.75 m
0 54.20 l
o
np
81.76 35.51 m
0 24.48 l
o
np
91.09 49.50 m
0 20.98 l
o
np
103.79 63.48 m
0 13.99 l
o
np
76.35 91.46 m
0 20.98 l
o
np
97.15 105.45 m
0 13.98 l
o
np
52.91 186.64 m
0 111.13 l
o
np
54.92 163.14 m
0 46.99 l
o
np
58.39 150.90 m
0 24.48 l
o
np
59.12 140.41 m
0 20.99 l
o
np
86.41 133.42 m
0 13.99 l
o
np
75.61 189.37 m
0 41.52 l
o
np
77.73 203.36 m
0 55.07 l
o
np
81.03 243.57 m
0 29.72 l
o
np
83.23 227.83 m
0 31.48 l
o
np
94.58 217.34 m
0 20.99 l
o
np
107.80 231.33 m
0 13.99 l
o
np
55.97 287.28 m
0 20.98 l
o
np
102.31 301.27 m
0 13.99 l
o
/Font1 findfont 8 s
0 setgray
127.64 33.47 (Lpoi) 1 0 t
127.64 46.62 (Gh) 1 0 t
127.64 61.44 (Lper) 1 0 t
127.64 74.66 (Es) 1 0 t
127.64 88.65 (Pc) 1 0 t
127.64 102.63 (Mb) 1 0 t
127.64 116.56 (Csan) 1 0 t
127.64 130.55 (Hh) 1 0 t
127.64 144.54 (Lm) 1 0 t
127.64 158.52 (Csch) 1 0 t
127.64 173.31 (Gg) 1 0 t
127.64 186.50 (Tm) 1 0 t
127.64 201.36 (Dg) 1 0 t
117.86 214.53 (V) 0 ta
-0.560 (a) tb gr
127.64 229.34 (Eg) 1 0 t
127.64 242.41 (Ef) 1 0 t
127.64 256.49 (Rs) 1 0 t
127.64 271.25 (Bp) 1 0 t
127.64 284.56 (Qr) 1 0 t
127.64 298.46 (Psub) 1 0 t
117.86 312.44 (P) 0 ta
-0.400 (o) tb gr
127.64 326.37 (Vm) 1 0 t
135.50 23.76 252.00 340.99 cl
/bg { 0.9333 0.8667 0.5098 rgb } def
0.3020 setgray
0.75 setlinewidth
[] 0 setdash
1 setlinecap
1 setlinejoin
10.00 setmiterlimit
136.66 28.52 54.83 13.99 r p3
/bg { 0.9569 0.6667 0 rgb } def
191.48 28.52 8.30 13.99 r p3
/bg { 0.8980 0.3373 0.1569 rgb } def
199.78 28.52 23.97 13.99 r p3
/bg { 0.1255 0.2118 0.3059 rgb } def
223.75 28.52 14.18 13.99 r p3
/bg { 0.1843 0.5294 0.5922 rgb } def
237.93 28.52 0.56 13.99 r p3
/bg { 0.2980 0.7608 0.8000 rgb } def
238.49 28.52 6.17 13.99 r p3
/bg { 0.7882 0.9255 0.8431 rgb } def
244.67 28.52 0.43 13.99 r p3
/bg { 0.6000 setgray } def
245.10 28.52 6.90 13.99 r p3
/bg { 0.9333 0.8667 0.5098 rgb } def
136.66 42.50 56.63 13.99 r p3
/bg { 0.9569 0.6667 0 rgb } def
193.29 42.50 15.50 13.99 r p3
/bg { 0.8980 0.3373 0.1569 rgb } def
208.79 42.50 5.22 13.99 r p3
/bg { 0.1255 0.2118 0.3059 rgb } def
214.01 42.50 12.46 13.99 r p3
/bg { 0.1843 0.5294 0.5922 rgb } def
226.47 42.50 3.24 13.99 r p3
/bg { 0.2980 0.7608 0.8000 rgb } def
229.70 42.50 3.96 13.99 r p3
/bg { 0.7882 0.9255 0.8431 rgb } def
233.67 42.50 0.02 13.99 r p3
/bg { 0.6000 setgray } def
233.69 42.50 18.31 13.99 r p3
/bg { 0.9333 0.8667 0.5098 rgb } def
136.66 56.49 38.71 13.99 r p3
/bg { 0.9569 0.6667 0 rgb } def
175.37 56.49 24.50 13.99 r p3
/bg { 0.8980 0.3373 0.1569 rgb } def
199.87 56.49 6.30 13.99 r p3
/bg { 0.1255 0.2118 0.3059 rgb } def
206.16 56.49 22.74 13.99 r p3
/bg { 0.1843 0.5294 0.5922 rgb } def
228.90 56.49 0.37 13.99 r p3
/bg { 0.2980 0.7608 0.8000 rgb } def
229.28 56.49 2.61 13.99 r p3
/bg { 0.7882 0.9255 0.8431 rgb } def
231.88 56.49 16.38 13.99 r p3
/bg { 0.6000 setgray } def
248.26 56.49 3.74 13.99 r p3
/bg { 0.9333 0.8667 0.5098 rgb } def
136.66 70.48 33.30 13.99 r p3
/bg { 0.9569 0.6667 0 rgb } def
169.96 70.48 18.50 13.99 r p3
/bg { 0.8980 0.3373 0.1569 rgb } def
188.46 70.48 23.28 13.99 r p3
/bg { 0.1255 0.2118 0.3059 rgb } def
211.74 70.48 21.75 13.99 r p3
/bg { 0.1843 0.5294 0.5922 rgb } def
233.49 70.48 1.56 13.99 r p3
/bg { 0.2980 0.7608 0.8000 rgb } def
235.05 70.48 2.67 13.99 r p3
/bg { 0.7882 0.9255 0.8431 rgb } def
237.72 70.48 4.31 13.99 r p3
/bg { 0.6000 setgray } def
242.03 70.48 9.97 13.99 r p3
/bg { 0.9333 0.8667 0.5098 rgb } def
136.66 84.46 47.50 13.99 r p3
/bg { 0.9569 0.6667 0 rgb } def
184.15 84.46 14.41 13.99 r p3
/bg { 0.8980 0.3373 0.1569 rgb } def
198.56 84.46 33.73 13.99 r p3
/bg { 0.1255 0.2118 0.3059 rgb } def
232.29 84.46 7.38 13.99 r p3
/bg { 0.1843 0.5294 0.5922 rgb } def
239.67 84.46 4.34 13.99 r p3
/bg { 0.2980 0.7608 0.8000 rgb } def
244.01 84.46 1.11 13.99 r p3
/bg { 0.7882 0.9255 0.8431 rgb } def
245.11 84.46 0.01 13.99 r p3
/bg { 0.6000 setgray } def
245.13 84.46 6.87 13.99 r p3
/bg { 0.9333 0.8667 0.5098 rgb } def
136.66 98.45 54.34 13.99 r p3
/bg { 0.9569 0.6667 0 rgb } def
190.99 98.45 13.63 13.99 r p3
/bg { 0.8980 0.3373 0.1569 rgb } def
204.63 98.45 24.81 13.99 r p3
/bg { 0.1255 0.2118 0.3059 rgb } def
229.44 98.45 15.16 13.99 r p3
/bg { 0.1843 0.5294 0.5922 rgb } def
244.60 98.45 0.75 13.99 r p3
/bg { 0.2980 0.7608 0.8000 rgb } def
245.35 98.45 1.68 13.99 r p3
/bg { 0.7882 0.9255 0.8431 rgb } def
247.03 98.45 0.00 13.99 r p3
/bg { 0.6000 setgray } def
247.03 98.45 4.97 13.99 r p3
/bg { 0.9333 0.8667 0.5098 rgb } def
136.66 112.44 67.68 13.99 r p3
/bg { 0.9569 0.6667 0 rgb } def
204.34 112.44 16.78 13.99 r p3
/bg { 0.8980 0.3373 0.1569 rgb } def
221.12 112.44 13.99 13.99 r p3
/bg { 0.1255 0.2118 0.3059 rgb } def
235.11 112.44 4.94 13.99 r p3
/bg { 0.1843 0.5294 0.5922 rgb } def
240.06 112.44 2.07 13.99 r p3
/bg { 0.2980 0.7608 0.8000 rgb } def
242.13 112.44 4.37 13.99 r p3
/bg { 0.7882 0.9255 0.8431 rgb } def
246.50 112.44 0.80 13.99 r p3
/bg { 0.6000 setgray } def
247.31 112.44 4.69 13.99 r p3
/bg { 0.9333 0.8667 0.5098 rgb } def
136.66 126.43 49.78 13.99 r p3
/bg { 0.9569 0.6667 0 rgb } def
186.44 126.43 33.18 13.99 r p3
/bg { 0.8980 0.3373 0.1569 rgb } def
219.62 126.43 18.14 13.99 r p3
/bg { 0.1255 0.2118 0.3059 rgb } def
237.76 126.43 2.22 13.99 r p3
/bg { 0.1843 0.5294 0.5922 rgb } def
239.98 126.43 0.47 13.99 r p3
/bg { 0.2980 0.7608 0.8000 rgb } def
240.46 126.43 0.72 13.99 r p3
/bg { 0.7882 0.9255 0.8431 rgb } def
241.17 126.43 2.89 13.99 r p3
/bg { 0.6000 setgray } def
244.07 126.43 7.93 13.99 r p3
/bg { 0.9333 0.8667 0.5098 rgb } def
136.66 140.41 37.39 13.99 r p3
/bg { 0.9569 0.6667 0 rgb } def
174.05 140.41 46.73 13.99 r p3
/bg { 0.8980 0.3373 0.1569 rgb } def
220.78 140.41 13.60 13.99 r p3
/bg { 0.1255 0.2118 0.3059 rgb } def
234.37 140.41 1.78 13.99 r p3
/bg { 0.1843 0.5294 0.5922 rgb } def
236.15 140.41 1.55 13.99 r p3
/bg { 0.2980 0.7608 0.8000 rgb } def
237.70 140.41 4.57 13.99 r p3
/bg { 0.7882 0.9255 0.8431 rgb } def
242.27 140.41 0.75 13.99 r p3
/bg { 0.6000 setgray } def
243.02 140.41 8.98 13.99 r p3
/bg { 0.9333 0.8667 0.5098 rgb } def
136.66 154.40 40.50 13.99 r p3
/bg { 0.9569 0.6667 0 rgb } def
177.16 154.40 33.26 13.99 r p3
/bg { 0.8980 0.3373 0.1569 rgb } def
210.42 154.40 11.06 13.99 r p3
/bg { 0.1255 0.2118 0.3059 rgb } def
221.48 154.40 7.57 13.99 r p3
/bg { 0.1843 0.5294 0.5922 rgb } def
229.05 154.40 0.24 13.99 r p3
/bg { 0.2980 0.7608 0.8000 rgb } def
229.29 154.40 3.25 13.99 r p3
/bg { 0.7882 0.9255 0.8431 rgb } def
232.55 154.40 0.91 13.99 r p3
/bg { 0.6000 setgray } def
233.45 154.40 18.55 13.99 r p3
/bg { 0.9333 0.8667 0.5098 rgb } def
136.66 168.39 55.95 13.99 r p3
/bg { 0.9569 0.6667 0 rgb } def
192.61 168.39 13.33 13.99 r p3
/bg { 0.8980 0.3373 0.1569 rgb } def
205.94 168.39 5.63 13.99 r p3
/bg { 0.1255 0.2118 0.3059 rgb } def
211.57 168.39 31.83 13.99 r p3
/bg { 0.1843 0.5294 0.5922 rgb } def
243.40 168.39 1.55 13.99 r p3
/bg { 0.2980 0.7608 0.8000 rgb } def
244.95 168.39 0.78 13.99 r p3
/bg { 0.7882 0.9255 0.8431 rgb } def
245.73 168.39 1.37 13.99 r p3
/bg { 0.6000 setgray } def
247.10 168.39 4.90 13.99 r p3
/bg { 0.9333 0.8667 0.5098 rgb } def
136.66 182.38 59.20 13.99 r p3
/bg { 0.9569 0.6667 0 rgb } def
195.86 182.38 28.44 13.99 r p3
/bg { 0.8980 0.3373 0.1569 rgb } def
224.29 182.38 9.54 13.99 r p3
/bg { 0.1255 0.2118 0.3059 rgb } def
233.83 182.38 7.97 13.99 r p3
/bg { 0.1843 0.5294 0.5922 rgb } def
241.80 182.38 3.49 13.99 r p3
/bg { 0.2980 0.7608 0.8000 rgb } def
245.29 182.38 1.80 13.99 r p3
/bg { 0.7882 0.9255 0.8431 rgb } def
247.09 182.38 0.39 13.99 r p3
/bg { 0.6000 setgray } def
247.48 182.38 4.52 13.99 r p3
/bg { 0.9333 0.8667 0.5098 rgb } def
136.66 196.36 69.01 13.99 r p3
/bg { 0.9569 0.6667 0 rgb } def
205.67 196.36 20.87 13.99 r p3
/bg { 0.8980 0.3373 0.1569 rgb } def
226.53 196.36 18.20 13.99 r p3
/bg { 0.1255 0.2118 0.3059 rgb } def
244.73 196.36 2.11 13.99 r p3
/bg { 0.1843 0.5294 0.5922 rgb } def
246.84 196.36 0.39 13.99 r p3
/bg { 0.2980 0.7608 0.8000 rgb } def
247.23 196.36 1.48 13.99 r p3
/bg { 0.7882 0.9255 0.8431 rgb } def
248.72 196.36 0.19 13.99 r p3
/bg { 0.6000 setgray } def
248.90 196.36 3.10 13.99 r p3
/bg { 0.9333 0.8667 0.5098 rgb } def
136.66 210.35 60.94 13.99 r p3
/bg { 0.9569 0.6667 0 rgb } def
197.60 210.35 15.39 13.99 r p3
/bg { 0.8980 0.3373 0.1569 rgb } def
212.99 210.35 28.59 13.99 r p3
/bg { 0.1255 0.2118 0.3059 rgb } def
241.58 210.35 3.54 13.99 r p3
/bg { 0.1843 0.5294 0.5922 rgb } def
245.12 210.35 0.41 13.99 r p3
/bg { 0.2980 0.7608 0.8000 rgb } def
245.54 210.35 1.10 13.99 r p3
/bg { 0.7882 0.9255 0.8431 rgb } def
246.64 210.35 1.03 13.99 r p3
/bg { 0.6000 setgray } def
247.67 210.35 4.33 13.99 r p3
/bg { 0.9333 0.8667 0.5098 rgb } def
136.66 224.34 36.36 13.99 r p3
/bg { 0.9569 0.6667 0 rgb } def
173.02 224.34 4.59 13.99 r p3
/bg { 0.8980 0.3373 0.1569 rgb } def
177.61 224.34 53.01 13.99 r p3
/bg { 0.1255 0.2118 0.3059 rgb } def
230.62 224.34 16.42 13.99 r p3
/bg { 0.1843 0.5294 0.5922 rgb } def
247.04 224.34 0.09 13.99 r p3
/bg { 0.2980 0.7608 0.8000 rgb } def
247.13 224.34 1.69 13.99 r p3
/bg { 0.7882 0.9255 0.8431 rgb } def
248.82 224.34 0.00 13.99 r p3
/bg { 0.6000 setgray } def
248.82 224.34 3.18 13.99 r p3
/bg { 0.9333 0.8667 0.5098 rgb } def
136.66 238.33 55.25 13.99 r p3
/bg { 0.9569 0.6667 0 rgb } def
191.90 238.33 19.12 13.99 r p3
/bg { 0.8980 0.3373 0.1569 rgb } def
211.02 238.33 20.06 13.99 r p3
/bg { 0.1255 0.2118 0.3059 rgb } def
231.08 238.33 8.98 13.99 r p3
/bg { 0.1843 0.5294 0.5922 rgb } def
240.06 238.33 1.76 13.99 r p3
/bg { 0.2980 0.7608 0.8000 rgb } def
241.82 238.33 1.74 13.99 r p3
/bg { 0.7882 0.9255 0.8431 rgb } def
243.57 238.33 1.11 13.99 r p3
/bg { 0.6000 setgray } def
244.68 238.33 7.32 13.99 r p3
/bg { 0.9333 0.8667 0.5098 rgb } def
136.66 252.31 44.85 13.99 r p3
/bg { 0.9569 0.6667 0 rgb } def
181.51 252.31 25.93 13.99 r p3
/bg { 0.8980 0.3373 0.1569 rgb } def
207.45 252.31 14.94 13.99 r p3
/bg { 0.1255 0.2118 0.3059 rgb } def
222.39 252.31 2.46 13.99 r p3
/bg { 0.1843 0.5294 0.5922 rgb } def
224.85 252.31 0.93 13.99 r p3
/bg { 0.2980 0.7608 0.8000 rgb } def
225.78 252.31 1.78 13.99 r p3
/bg { 0.7882 0.9255 0.8431 rgb } def
227.55 252.31 0.39 13.99 r p3
/bg { 0.6000 setgray } def
227.94 252.31 24.06 13.99 r p3
/bg { 0.9333 0.8667 0.5098 rgb } def
136.66 266.30 46.46 13.99 r p3
/bg { 0.9569 0.6667 0 rgb } def
183.11 266.30 25.10 13.99 r p3
/bg { 0.8980 0.3373 0.1569 rgb } def
208.21 266.30 4.62 13.99 r p3
/bg { 0.1255 0.2118 0.3059 rgb } def
212.83 266.30 12.60 13.99 r p3
/bg { 0.1843 0.5294 0.5922 rgb } def
225.43 266.30 6.76 13.99 r p3
/bg { 0.2980 0.7608 0.8000 rgb } def
232.19 266.30 3.59 13.99 r p3
/bg { 0.7882 0.9255 0.8431 rgb } def
235.78 266.30 0.18 13.99 r p3
/bg { 0.6000 setgray } def
235.96 266.30 16.04 13.99 r p3
/bg { 0.9333 0.8667 0.5098 rgb } def
136.66 280.29 55.73 13.99 r p3
/bg { 0.9569 0.6667 0 rgb } def
192.39 280.29 24.67 13.99 r p3
/bg { 0.8980 0.3373 0.1569 rgb } def
217.06 280.29 8.25 13.99 r p3
/bg { 0.1255 0.2118 0.3059 rgb } def
225.31 280.29 5.58 13.99 r p3
/bg { 0.1843 0.5294 0.5922 rgb } def
230.89 280.29 6.75 13.99 r p3
/bg { 0.2980 0.7608 0.8000 rgb } def
237.64 280.29 3.05 13.99 r p3
/bg { 0.7882 0.9255 0.8431 rgb } def
240.69 280.29 0.64 13.99 r p3
/bg { 0.6000 setgray } def
241.34 280.29 10.66 13.99 r p3
/bg { 0.9333 0.8667 0.5098 rgb } def
136.66 294.27 41.74 13.99 r p3
/bg { 0.9569 0.6667 0 rgb } def
178.40 294.27 23.69 13.99 r p3
/bg { 0.8980 0.3373 0.1569 rgb } def
202.09 294.27 24.30 13.99 r p3
/bg { 0.1255 0.2118 0.3059 rgb } def
226.38 294.27 9.75 13.99 r p3
/bg { 0.1843 0.5294 0.5922 rgb } def
236.13 294.27 8.69 13.99 r p3
/bg { 0.2980 0.7608 0.8000 rgb } def
244.82 294.27 2.03 13.99 r p3
/bg { 0.7882 0.9255 0.8431 rgb } def
246.85 294.27 0.38 13.99 r p3
/bg { 0.6000 setgray } def
247.23 294.27 4.77 13.99 r p3
/bg { 0.9333 0.8667 0.5098 rgb } def
136.66 308.26 56.35 13.99 r p3
/bg { 0.9569 0.6667 0 rgb } def
193.01 308.26 21.25 13.99 r p3
/bg { 0.8980 0.3373 0.1569 rgb } def
214.26 308.26 11.44 13.99 r p3
/bg { 0.1255 0.2118 0.3059 rgb } def
225.70 308.26 10.10 13.99 r p3
/bg { 0.1843 0.5294 0.5922 rgb } def
235.80 308.26 5.21 13.99 r p3
/bg { 0.2980 0.7608 0.8000 rgb } def
241.01 308.26 0.25 13.99 r p3
/bg { 0.7882 0.9255 0.8431 rgb } def
241.26 308.26 2.43 13.99 r p3
/bg { 0.6000 setgray } def
243.69 308.26 8.31 13.99 r p3
/bg { 0.9333 0.8667 0.5098 rgb } def
136.66 322.25 50.65 13.99 r p3
/bg { 0.9569 0.6667 0 rgb } def
187.30 322.25 33.42 13.99 r p3
/bg { 0.8980 0.3373 0.1569 rgb } def
220.73 322.25 10.11 13.99 r p3
/bg { 0.1255 0.2118 0.3059 rgb } def
230.83 322.25 16.10 13.99 r p3
/bg { 0.1843 0.5294 0.5922 rgb } def
246.93 322.25 1.15 13.99 r p3
/bg { 0.2980 0.7608 0.8000 rgb } def
248.08 322.25 0.67 13.99 r p3
/bg { 0.7882 0.9255 0.8431 rgb } def
248.75 322.25 0.35 13.99 r p3
/bg { 0.6000 setgray } def
249.10 322.25 2.90 13.99 r p3
252.00 23.76 368.50 340.99 cl
/bg { 0 0.3529 0.1961 rgb } def
0.3020 setgray
0.75 setlinewidth
[] 0 setdash
1 setlinecap
1 setlinejoin
10.00 setmiterlimit
253.15 28.52 61.69 13.99 r p3
/bg { 0.1373 0.5451 0.2706 rgb } def
314.85 28.52 1.66 13.99 r p3
/bg { 0.2549 0.6706 0.3647 rgb } def
316.51 28.52 0.09 13.99 r p3
/bg { 0.4549 0.7686 0.4627 rgb } def
316.60 28.52 7.75 13.99 r p3
/bg { 0.6314 0.8510 0.6078 rgb } def
324.35 28.52 12.23 13.99 r p3
/bg { 0.7804 0.9137 0.7529 rgb } def
336.58 28.52 10.30 13.99 r p3
/bg { 0.9294 0.9725 0.9137 rgb } def
346.89 28.52 1.50 13.99 r p3
/bg { 0.7451 setgray } def
348.39 28.52 20.11 13.99 r p3
/bg { 0 0.3529 0.1961 rgb } def
253.15 42.50 24.16 13.99 r p3
/bg { 0.1373 0.5451 0.2706 rgb } def
277.31 42.50 8.04 13.99 r p3
/bg { 0.2549 0.6706 0.3647 rgb } def
285.36 42.50 31.58 13.99 r p3
/bg { 0.4549 0.7686 0.4627 rgb } def
316.93 42.50 4.12 13.99 r p3
/bg { 0.6314 0.8510 0.6078 rgb } def
321.06 42.50 4.38 13.99 r p3
/bg { 0.7804 0.9137 0.7529 rgb } def
325.44 42.50 4.41 13.99 r p3
/bg { 0.9294 0.9725 0.9137 rgb } def
329.85 42.50 8.39 13.99 r p3
/bg { 0.7451 setgray } def
338.24 42.50 30.25 13.99 r p3
/bg { 0 0.3529 0.1961 rgb } def
253.15 56.49 38.94 13.99 r p3
/bg { 0.1373 0.5451 0.2706 rgb } def
292.09 56.49 6.60 13.99 r p3
/bg { 0.2549 0.6706 0.3647 rgb } def
298.69 56.49 12.69 13.99 r p3
/bg { 0.4549 0.7686 0.4627 rgb } def
311.38 56.49 9.81 13.99 r p3
/bg { 0.6314 0.8510 0.6078 rgb } def
321.18 56.49 4.65 13.99 r p3
/bg { 0.7804 0.9137 0.7529 rgb } def
325.83 56.49 3.04 13.99 r p3
/bg { 0.9294 0.9725 0.9137 rgb } def
328.88 56.49 10.08 13.99 r p3
/bg { 0.7451 setgray } def
338.96 56.49 29.54 13.99 r p3
/bg { 0 0.3529 0.1961 rgb } def
253.15 70.48 37.43 13.99 r p3
/bg { 0.1373 0.5451 0.2706 rgb } def
290.58 70.48 5.11 13.99 r p3
/bg { 0.2549 0.6706 0.3647 rgb } def
295.69 70.48 2.04 13.99 r p3
/bg { 0.4549 0.7686 0.4627 rgb } def
297.74 70.48 9.92 13.99 r p3
/bg { 0.6314 0.8510 0.6078 rgb } def
307.65 70.48 6.30 13.99 r p3
/bg { 0.7804 0.9137 0.7529 rgb } def
313.95 70.48 4.94 13.99 r p3
/bg { 0.9294 0.9725 0.9137 rgb } def
318.89 70.48 7.23 13.99 r p3
/bg { 0.7451 setgray } def
326.12 70.48 42.38 13.99 r p3
/bg { 0 0.3529 0.1961 rgb } def
253.15 84.46 65.07 13.99 r p3
/bg { 0.1373 0.5451 0.2706 rgb } def
318.22 84.46 1.99 13.99 r p3
/bg { 0.2549 0.6706 0.3647 rgb } def
320.21 84.46 1.10 13.99 r p3
/bg { 0.4549 0.7686 0.4627 rgb } def
321.32 84.46 10.19 13.99 r p3
/bg { 0.6314 0.8510 0.6078 rgb } def
331.50 84.46 4.54 13.99 r p3
/bg { 0.7804 0.9137 0.7529 rgb } def
336.05 84.46 2.89 13.99 r p3
/bg { 0.9294 0.9725 0.9137 rgb } def
338.93 84.46 2.86 13.99 r p3
/bg { 0.7451 setgray } def
341.80 84.46 26.70 13.99 r p3
/bg { 0 0.3529 0.1961 rgb } def
253.15 98.45 45.66 13.99 r p3
/bg { 0.1373 0.5451 0.2706 rgb } def
298.82 98.45 4.36 13.99 r p3
/bg { 0.2549 0.6706 0.3647 rgb } def
303.18 98.45 1.26 13.99 r p3
/bg { 0.4549 0.7686 0.4627 rgb } def
304.44 98.45 12.75 13.99 r p3
/bg { 0.6314 0.8510 0.6078 rgb } def
317.19 98.45 4.87 13.99 r p3
/bg { 0.7804 0.9137 0.7529 rgb } def
322.06 98.45 4.80 13.99 r p3
/bg { 0.9294 0.9725 0.9137 rgb } def
326.86 98.45 5.87 13.99 r p3
/bg { 0.7451 setgray } def
332.73 98.45 35.76 13.99 r p3
/bg { 0 0.3529 0.1961 rgb } def
253.15 112.44 24.10 13.99 r p3
/bg { 0.1373 0.5451 0.2706 rgb } def
277.25 112.44 20.28 13.99 r p3
/bg { 0.2549 0.6706 0.3647 rgb } def
297.53 112.44 32.71 13.99 r p3
/bg { 0.4549 0.7686 0.4627 rgb } def
330.24 112.44 3.39 13.99 r p3
/bg { 0.6314 0.8510 0.6078 rgb } def
333.63 112.44 5.55 13.99 r p3
/bg { 0.7804 0.9137 0.7529 rgb } def
339.19 112.44 3.44 13.99 r p3
/bg { 0.9294 0.9725 0.9137 rgb } def
342.62 112.44 3.63 13.99 r p3
/bg { 0.7451 setgray } def
346.25 112.44 22.25 13.99 r p3
/bg { 0 0.3529 0.1961 rgb } def
253.15 126.43 39.91 13.99 r p3
/bg { 0.1373 0.5451 0.2706 rgb } def
293.06 126.43 4.49 13.99 r p3
/bg { 0.2549 0.6706 0.3647 rgb } def
297.56 126.43 15.02 13.99 r p3
/bg { 0.4549 0.7686 0.4627 rgb } def
312.58 126.43 7.17 13.99 r p3
/bg { 0.6314 0.8510 0.6078 rgb } def
319.75 126.43 7.35 13.99 r p3
/bg { 0.7804 0.9137 0.7529 rgb } def
327.10 126.43 1.50 13.99 r p3
/bg { 0.9294 0.9725 0.9137 rgb } def
328.60 126.43 2.30 13.99 r p3
/bg { 0.7451 setgray } def
330.90 126.43 37.60 13.99 r p3
/bg { 0 0.3529 0.1961 rgb } def
253.15 140.41 29.62 13.99 r p3
/bg { 0.1373 0.5451 0.2706 rgb } def
282.78 140.41 3.46 13.99 r p3
/bg { 0.2549 0.6706 0.3647 rgb } def
286.24 140.41 25.41 13.99 r p3
/bg { 0.4549 0.7686 0.4627 rgb } def
311.65 140.41 4.69 13.99 r p3
/bg { 0.6314 0.8510 0.6078 rgb } def
316.35 140.41 7.06 13.99 r p3
/bg { 0.7804 0.9137 0.7529 rgb } def
323.40 140.41 2.47 13.99 r p3
/bg { 0.9294 0.9725 0.9137 rgb } def
325.88 140.41 8.51 13.99 r p3
/bg { 0.7451 setgray } def
334.39 140.41 34.11 13.99 r p3
/bg { 0 0.3529 0.1961 rgb } def
253.15 154.40 51.25 13.99 r p3
/bg { 0.1373 0.5451 0.2706 rgb } def
304.41 154.40 11.32 13.99 r p3
/bg { 0.2549 0.6706 0.3647 rgb } def
315.73 154.40 2.90 13.99 r p3
/bg { 0.4549 0.7686 0.4627 rgb } def
318.63 154.40 9.26 13.99 r p3
/bg { 0.6314 0.8510 0.6078 rgb } def
327.89 154.40 7.28 13.99 r p3
/bg { 0.7804 0.9137 0.7529 rgb } def
335.16 154.40 4.81 13.99 r p3
/bg { 0.9294 0.9725 0.9137 rgb } def
339.97 154.40 4.17 13.99 r p3
/bg { 0.7451 setgray } def
344.14 154.40 24.35 13.99 r p3
/bg { 0 0.3529 0.1961 rgb } def
253.15 168.39 18.06 13.99 r p3
/bg { 0.1373 0.5451 0.2706 rgb } def
271.22 168.39 39.51 13.99 r p3
/bg { 0.2549 0.6706 0.3647 rgb } def
310.73 168.39 7.57 13.99 r p3
/bg { 0.4549 0.7686 0.4627 rgb } def
318.30 168.39 4.33 13.99 r p3
/bg { 0.6314 0.8510 0.6078 rgb } def
322.63 168.39 3.58 13.99 r p3
/bg { 0.7804 0.9137 0.7529 rgb } def
326.21 168.39 15.77 13.99 r p3
/bg { 0.9294 0.9725 0.9137 rgb } def
341.97 168.39 3.76 13.99 r p3
/bg { 0.7451 setgray } def
345.74 168.39 22.76 13.99 r p3
/bg { 0 0.3529 0.1961 rgb } def
253.15 182.38 39.17 13.99 r p3
/bg { 0.1373 0.5451 0.2706 rgb } def
292.32 182.38 16.77 13.99 r p3
/bg { 0.2549 0.6706 0.3647 rgb } def
309.09 182.38 7.10 13.99 r p3
/bg { 0.4549 0.7686 0.4627 rgb } def
316.20 182.38 6.90 13.99 r p3
/bg { 0.6314 0.8510 0.6078 rgb } def
323.09 182.38 5.30 13.99 r p3
/bg { 0.7804 0.9137 0.7529 rgb } def
328.39 182.38 10.17 13.99 r p3
/bg { 0.9294 0.9725 0.9137 rgb } def
338.56 182.38 5.10 13.99 r p3
/bg { 0.7451 setgray } def
343.67 182.38 24.83 13.99 r p3
/bg { 0 0.3529 0.1961 rgb } def
253.15 196.36 63.57 13.99 r p3
/bg { 0.1373 0.5451 0.2706 rgb } def
316.72 196.36 3.64 13.99 r p3
/bg { 0.2549 0.6706 0.3647 rgb } def
320.36 196.36 1.75 13.99 r p3
/bg { 0.4549 0.7686 0.4627 rgb } def
322.11 196.36 18.11 13.99 r p3
/bg { 0.6314 0.8510 0.6078 rgb } def
340.22 196.36 5.55 13.99 r p3
/bg { 0.7804 0.9137 0.7529 rgb } def
345.76 196.36 1.01 13.99 r p3
/bg { 0.9294 0.9725 0.9137 rgb } def
346.77 196.36 1.12 13.99 r p3
/bg { 0.7451 setgray } def
347.88 196.36 20.61 13.99 r p3
/bg { 0 0.3529 0.1961 rgb } def
253.15 210.35 50.43 13.99 r p3
/bg { 0.1373 0.5451 0.2706 rgb } def
303.59 210.35 7.79 13.99 r p3
/bg { 0.2549 0.6706 0.3647 rgb } def
311.38 210.35 7.66 13.99 r p3
/bg { 0.4549 0.7686 0.4627 rgb } def
319.04 210.35 6.36 13.99 r p3
/bg { 0.6314 0.8510 0.6078 rgb } def
325.39 210.35 6.33 13.99 r p3
/bg { 0.7804 0.9137 0.7529 rgb } def
331.73 210.35 11.11 13.99 r p3
/bg { 0.9294 0.9725 0.9137 rgb } def
342.83 210.35 3.50 13.99 r p3
/bg { 0.7451 setgray } def
346.33 210.35 22.16 13.99 r p3
/bg { 0 0.3529 0.1961 rgb } def
253.15 224.34 51.70 13.99 r p3
/bg { 0.1373 0.5451 0.2706 rgb } def
304.85 224.34 0.52 13.99 r p3
/bg { 0.2549 0.6706 0.3647 rgb } def
305.37 224.34 0.14 13.99 r p3
/bg { 0.4549 0.7686 0.4627 rgb } def
305.51 224.34 24.64 13.99 r p3
/bg { 0.6314 0.8510 0.6078 rgb } def
330.14 224.34 6.15 13.99 r p3
/bg { 0.7804 0.9137 0.7529 rgb } def
336.29 224.34 7.65 13.99 r p3
/bg { 0.9294 0.9725 0.9137 rgb } def
343.94 224.34 3.74 13.99 r p3
/bg { 0.7451 setgray } def
347.68 224.34 20.81 13.99 r p3
/bg { 0 0.3529 0.1961 rgb } def
253.15 238.33 42.13 13.99 r p3
/bg { 0.1373 0.5451 0.2706 rgb } def
295.28 238.33 11.58 13.99 r p3
/bg { 0.2549 0.6706 0.3647 rgb } def
306.86 238.33 7.33 13.99 r p3
/bg { 0.4549 0.7686 0.4627 rgb } def
314.19 238.33 4.34 13.99 r p3
/bg { 0.6314 0.8510 0.6078 rgb } def
318.52 238.33 4.92 13.99 r p3
/bg { 0.7804 0.9137 0.7529 rgb } def
323.44 238.33 4.68 13.99 r p3
/bg { 0.9294 0.9725 0.9137 rgb } def
328.13 238.33 1.61 13.99 r p3
/bg { 0.7451 setgray } def
329.73 238.33 38.76 13.99 r p3
/bg { 0 0.3529 0.1961 rgb } def
253.15 252.31 60.21 13.99 r p3
/bg { 0.1373 0.5451 0.2706 rgb } def
313.36 252.31 3.38 13.99 r p3
/bg { 0.2549 0.6706 0.3647 rgb } def
316.74 252.31 0.36 13.99 r p3
/bg { 0.4549 0.7686 0.4627 rgb } def
317.11 252.31 12.29 13.99 r p3
/bg { 0.6314 0.8510 0.6078 rgb } def
329.40 252.31 5.65 13.99 r p3
/bg { 0.7804 0.9137 0.7529 rgb } def
335.05 252.31 9.72 13.99 r p3
/bg { 0.9294 0.9725 0.9137 rgb } def
344.76 252.31 4.44 13.99 r p3
/bg { 0.7451 setgray } def
349.21 252.31 19.29 13.99 r p3
/bg { 0 0.3529 0.1961 rgb } def
253.15 266.30 32.83 13.99 r p3
/bg { 0.1373 0.5451 0.2706 rgb } def
285.98 266.30 46.06 13.99 r p3
/bg { 0.2549 0.6706 0.3647 rgb } def
332.04 266.30 0.36 13.99 r p3
/bg { 0.4549 0.7686 0.4627 rgb } def
332.41 266.30 11.61 13.99 r p3
/bg { 0.6314 0.8510 0.6078 rgb } def
344.02 266.30 3.47 13.99 r p3
/bg { 0.7804 0.9137 0.7529 rgb } def
347.49 266.30 1.94 13.99 r p3
/bg { 0.9294 0.9725 0.9137 rgb } def
349.43 266.30 2.27 13.99 r p3
/bg { 0.7451 setgray } def
351.70 266.30 16.80 13.99 r p3
/bg { 0 0.3529 0.1961 rgb } def
253.15 280.29 25.46 13.99 r p3
/bg { 0.1373 0.5451 0.2706 rgb } def
278.61 280.29 31.27 13.99 r p3
/bg { 0.2549 0.6706 0.3647 rgb } def
309.89 280.29 10.61 13.99 r p3
/bg { 0.4549 0.7686 0.4627 rgb } def
320.49 280.29 9.72 13.99 r p3
/bg { 0.6314 0.8510 0.6078 rgb } def
330.22 280.29 7.98 13.99 r p3
/bg { 0.7804 0.9137 0.7529 rgb } def
338.20 280.29 1.98 13.99 r p3
/bg { 0.9294 0.9725 0.9137 rgb } def
340.18 280.29 5.18 13.99 r p3
/bg { 0.7451 setgray } def
345.36 280.29 23.14 13.99 r p3
/bg { 0 0.3529 0.1961 rgb } def
253.15 294.27 42.18 13.99 r p3
/bg { 0.1373 0.5451 0.2706 rgb } def
295.33 294.27 5.07 13.99 r p3
/bg { 0.2549 0.6706 0.3647 rgb } def
300.40 294.27 26.78 13.99 r p3
/bg { 0.4549 0.7686 0.4627 rgb } def
327.18 294.27 4.83 13.99 r p3
/bg { 0.6314 0.8510 0.6078 rgb } def
332.01 294.27 5.14 13.99 r p3
/bg { 0.7804 0.9137 0.7529 rgb } def
337.15 294.27 9.19 13.99 r p3
/bg { 0.9294 0.9725 0.9137 rgb } def
346.33 294.27 3.48 13.99 r p3
/bg { 0.7451 setgray } def
349.81 294.27 18.68 13.99 r p3
/bg { 0 0.3529 0.1961 rgb } def
253.15 308.26 15.38 13.99 r p3
/bg { 0.1373 0.5451 0.2706 rgb } def
268.54 308.26 13.19 13.99 r p3
/bg { 0.2549 0.6706 0.3647 rgb } def
281.72 308.26 38.68 13.99 r p3
/bg { 0.4549 0.7686 0.4627 rgb } def
320.40 308.26 3.35 13.99 r p3
/bg { 0.6314 0.8510 0.6078 rgb } def
323.75 308.26 1.91 13.99 r p3
/bg { 0.7804 0.9137 0.7529 rgb } def
325.66 308.26 2.83 13.99 r p3
/bg { 0.9294 0.9725 0.9137 rgb } def
328.49 308.26 8.20 13.99 r p3
/bg { 0.7451 setgray } def
336.68 308.26 31.81 13.99 r p3
/bg { 0 0.3529 0.1961 rgb } def
253.15 322.25 39.83 13.99 r p3
/bg { 0.1373 0.5451 0.2706 rgb } def
292.99 322.25 20.17 13.99 r p3
/bg { 0.2549 0.6706 0.3647 rgb } def
313.16 322.25 8.89 13.99 r p3
/bg { 0.4549 0.7686 0.4627 rgb } def
322.06 322.25 5.84 13.99 r p3
/bg { 0.6314 0.8510 0.6078 rgb } def
327.90 322.25 6.54 13.99 r p3
/bg { 0.7804 0.9137 0.7529 rgb } def
334.44 322.25 7.75 13.99 r p3
/bg { 0.9294 0.9725 0.9137 rgb } def
342.19 322.25 3.19 13.99 r p3
/bg { 0.7451 setgray } def
345.38 322.25 23.12 13.99 r p3
368.50 23.76 484.99 340.99 cl
/bg { 0.9333 0.8667 0.5098 rgb } def
0.3020 setgray
0.75 setlinewidth
[] 0 setdash
1 setlinecap
1 setlinejoin
10.00 setmiterlimit
381.36 309.28 6.84 -5.70 r p3
/bg { 0.9569 0.6667 0 rgb } def
381.36 297.88 6.84 -5.70 r p3
/bg { 0.8980 0.3373 0.1569 rgb } def
381.36 286.47 6.84 -5.70 r p3
/bg { 0.1255 0.2118 0.3059 rgb } def
381.36 275.07 6.84 -5.70 r p3
/bg { 0.1843 0.5294 0.5922 rgb } def
381.36 263.67 6.84 -5.70 r p3
/bg { 0.2980 0.7608 0.8000 rgb } def
381.36 252.26 6.84 -5.70 r p3
/bg { 0.7882 0.9255 0.8431 rgb } def
381.36 240.86 6.84 -5.70 r p3
/bg { 0.6000 setgray } def
381.36 229.45 6.84 -5.70 r p3
/Font2 findfont 10 s
407.97 320.01 (Fungi) 0 0 t
/Font3 findfont 10 s
396.76 302.84 (Unkno) 0 ta
-0.150 (wn) tb gr
396.76 291.44 (Capnodiales) 0 0 t
396.76 280.03 (Xylar) 0 ta
0.150 (iales) tb gr
396.76 268.63 (Chaetoth) 0 ta
-0.300 (yr) tb
0.150 (iales) tb gr
396.76 257.22 (Pleospor) 0 ta
-0.100 (ales) tb gr
396.76 245.82 (T) 0 ta
-1.200 (remellales) tb gr
396.76 234.41 (Diapor) 0 ta
0.400 (thales) tb gr
396.76 223.01 (Other) 0 0 t
/bg { 0 0.3529 0.1961 rgb } def
381.36 162.42 6.84 -5.70 r p3
/bg { 0.1373 0.5451 0.2706 rgb } def
381.36 151.01 6.84 -5.70 r p3
/bg { 0.2549 0.6706 0.3647 rgb } def
381.36 139.61 6.84 -5.70 r p3
/bg { 0.4549 0.7686 0.4627 rgb } def
381.36 128.20 6.84 -5.70 r p3
/bg { 0.6314 0.8510 0.6078 rgb } def
381.36 116.80 6.84 -5.70 r p3
/bg { 0.7804 0.9137 0.7529 rgb } def
381.36 105.39 6.84 -5.70 r p3
/bg { 0.9294 0.9725 0.9137 rgb } def
381.36 93.99 6.84 -5.70 r p3
/bg { 0.7451 setgray } def
381.36 82.58 6.84 -5.70 r p3
/Font2 findfont 10 s
409.99 171.11 (Bacteria) 0 0 t
/Font3 findfont 10 s
396.76 155.98 (Rhiz) 0 ta
-0.150 (obiales) tb gr
396.76 144.57 (Deinococcales) 0 0 t
396.76 133.17 (Chlorofle) 0 ta
-0.300 (xales) tb gr
396.76 121.76 (Acetobacter) 0 ta
-0.100 (ales) tb gr
396.76 110.36 (Sphingomonadales) 0 0 t
396.76 98.95 (Micrococcales) 0 0 t
396.76 87.55 (Fr) 0 ta
-0.100 (ankiales) tb gr
396.76 76.14 (Other) 0 0 t
0.00 0.00 504.00 360.00 cl
/Font2 findfont 12 s
0.3020 setgray
193.75 342.89 (Fungi) .5 0 t
310.25 342.89 (Bacteria) .5 0 t
/Font1 findfont 12 s
135.50 16.16 (0) .5 0 t
242.68 16.16 (1) .5 0 t
261.32 16.16 (0) .5 0 t
368.50 16.16 (1) .5 0 t
198.97 6.65 (Relativ) 0 ta
-0.300 (e ab) tb
-0.240 (undance) tb gr
ep
%%Trailer
%%Pages: 1
%%EOF
